Analysis of variance revisited
…
Rows: 28 Columns: 3
── Column specification ────────────────────────────────────────────────────────
Delimiter: " "
chr (2): ratsize, diet
dbl (1): kidneyweight

ℹ Use `spec()` to retrieve the full column specification for this data.
ℹ Specify the column types or set `show_col_types = FALSE` to quiet this message.

The data

vitaminb

# A tibble: 28 × 3
   ratsize diet     kidneyweight
   <chr>   <chr>           <dbl>
 1 lean    regular          1.62
 2 lean    regular          1.8 
 3 lean    regular          1.71
 4 lean    regular          1.81
 5 lean    regular          1.47
 6 lean    regular          1.37
 7 lean    regular          1.71
 8 lean    vitaminb         1.51
 9 lean    vitaminb         1.65
10 lean    vitaminb         1.45
# ℹ 18 more rows
…
── Column specification ────────────────────────────────────────────────────────
cols(
  noise = col_double(),
  size = col_character(),
  type = col_character(),
  side = col_character()
)

The data

autonoise

# A tibble: 36 × 4
   noise size  type  side 
   <dbl> <chr> <chr> <chr>
 1   840 M     Std   R    
 2   770 L     Octel L    
 3   820 M     Octel R    
 4   775 L     Octel R    
 5   825 M     Octel L    
 6   840 M     Std   R    
 7   845 M     Std   L    
 8   825 M     Octel L    
 9   815 M     Octel L    
10   845 M     Std   R    
# ℹ 26 more rows
…
