Bootstrap again
…
my_url="http://ritsokiguess.site/datafiles/to-school.csv"
to_school=read_csv(my_url)

Rows: 80 Columns: 2
── Column specification ────────────────────────────────────────────────────────
Delimiter: ","
chr (1): location
dbl (1): traveltime

ℹ Use `spec()` to retrieve the full column specification for this data.
ℹ Specify the column types or set `show_col_types = FALSE` to quiet this message.

to_school

# A tibble: 80 × 2
   traveltime location
        <dbl> <chr>   
 1         30 Ontario 
 2         10 Ontario 
 3          8 Ontario 
 4         30 Ontario 
 5          5 Ontario 
 6          8 Ontario 
 7          7 Ontario 
 8         15 Ontario 
 9         10 Ontario 
10         35 Ontario 
# ℹ 70 more rows
…
# A tibble: 2 × 2
  location     n
  <chr>    <int>
1 Ontario     46
2 UK          34

Our original samples were 40 from each location, but by randomly resampling rows, we probably don’t get 40 from each. We need to draw “stratified resamples” to ensure that we get 40 from each place. This is hard to organize with the build-it-yourself bootstrap. To make things easier, we use the rsample package, but then we have to worry about handling the results.

Automating the bootstrap

Let’s go back to our IRS data for a moment:

irs

# A tibble: 30 × 1
    Time
   <dbl>
 1    91
 2    64
 3   243
 4   167
 5   123
 6    65
 7    71
 8   204
 9   110
10   178
# ℹ 20 more rows

What happens if we use rsample to resample from these? Let’s just do a few to start. rsample has a function bootstraps that does this:

d <- bootstraps(irs, times=1000) 
d

# Bootstrap sampling 
# A tibble: 1,000 × 2
   splits          id           
   <list>          <chr>        
 1 <split [30/8]>  Bootstrap0001
 2 <split [30/10]> Bootstrap0002
 3 <split [30/15]> Bootstrap0003
 4 <split [30/8]>  Bootstrap0004
 5 <split [30/11]> Bootstrap0005
 6 <split [30/9]>  Bootstrap0006
 7 <split [30/13]> Bootstrap0007
 8 <split [30/11]> Bootstrap0008
 9 <split [30/12]> Bootstrap0009
10 <split [30/11]> Bootstrap0010
# ℹ 990 more rows

Each of those things in splits is one bootstrap resample. To get at the things in them, we use analysis:

d %>% mutate(sample=map(splits, ~analysis(.))) -> dd
dd

# Bootstrap sampling 
# A tibble: 1,000 × 3
   splits          id            sample             
   <list>          <chr>         <list>             
 1 <split [30/8]>  Bootstrap0001 <spc_tbl_ [30 × 1]>
 2 <split [30/10]> Bootstrap0002 <spc_tbl_ [30 × 1]>
 3 <split [30/15]> Bootstrap0003 <spc_tbl_ [30 × 1]>
 4 <split [30/8]>  Bootstrap0004 <spc_tbl_ [30 × 1]>
 5 <split [30/11]> Bootstrap0005 <spc_tbl_ [30 × 1]>
 6 <split [30/9]>  Bootstrap0006 <spc_tbl_ [30 × 1]>
 7 <split [30/13]> Bootstrap0007 <spc_tbl_ [30 × 1]>
 8 <split [30/11]> Bootstrap0008 <spc_tbl_ [30 × 1]>
 9 <split [30/12]> Bootstrap0009 <spc_tbl_ [30 × 1]>
10 <split [30/11]> Bootstrap0010 <spc_tbl_ [30 × 1]>
# ℹ 990 more rows

and then unnest the actual samples to see them:

dd %>% unnest(sample)

# A tibble: 30,000 × 3
   splits         id             Time
   <list>         <chr>         <dbl>
 1 <split [30/8]> Bootstrap0001    84
 2 <split [30/8]> Bootstrap0001   264
 3 <split [30/8]> Bootstrap0001   302
 4 <split [30/8]> Bootstrap0001    64
 5 <split [30/8]> Bootstrap0001   142
 6 <split [30/8]> Bootstrap0001   527
 7 <split [30/8]> Bootstrap0001   264
 8 <split [30/8]> Bootstrap0001   209
 9 <split [30/8]> Bootstrap0001   243
10 <split [30/8]> Bootstrap0001   527
# ℹ 29,990 more rows

The values in Time are the resampled-with-replacement times to fill in the form.

What we cared about here was the bootstrap distribution of the sample mean, so that for each of the samples in dd we need to find the mean Time in it:

dd %>% mutate(the_mean=map_dbl(sample, ~mean(.$Time))) -> ddd
ddd

# Bootstrap sampling 
# A tibble: 1,000 × 4
   splits          id            sample              the_mean
   <list>          <chr>         <list>                 <dbl>
 1 <split [30/8]>  Bootstrap0001 <spc_tbl_ [30 × 1]>     234.
 2 <split [30/10]> Bootstrap0002 <spc_tbl_ [30 × 1]>     200.
 3 <split [30/15]> Bootstrap0003 <spc_tbl_ [30 × 1]>     175.
 4 <split [30/8]>  Bootstrap0004 <spc_tbl_ [30 × 1]>     212.
 5 <split [30/11]> Bootstrap0005 <spc_tbl_ [30 × 1]>     233.
 6 <split [30/9]>  Bootstrap0006 <spc_tbl_ [30 × 1]>     211.
 7 <split [30/13]> Bootstrap0007 <spc_tbl_ [30 × 1]>     230.
 8 <split [30/11]> Bootstrap0008 <spc_tbl_ [30 × 1]>     175.
 9 <split [30/12]> Bootstrap0009 <spc_tbl_ [30 × 1]>     216.
10 <split [30/11]> Bootstrap0010 <spc_tbl_ [30 × 1]>     181.
# ℹ 990 more rows
…
