The bootstrap
…
[1] 168.7333

That’s one bootstrapped mean. We need a whole bunch.

A whole bunch

Use the same idea as for simulating power:

tibble(sim = 1:1000) %>% 
  rowwise() %>% 
  mutate(boot_sample = list(sample(irs$Time, replace = TRUE)))

# A tibble: 1,000 × 2
# Rowwise: 
     sim boot_sample
   <int> <list>     
 1     1 <dbl [30]> 
 2     2 <dbl [30]> 
 3     3 <dbl [30]> 
 4     4 <dbl [30]> 
 5     5 <dbl [30]> 
 6     6 <dbl [30]> 
 7     7 <dbl [30]> 
 8     8 <dbl [30]> 
 9     9 <dbl [30]> 
10    10 <dbl [30]> 
# ℹ 990 more rows

Get the mean of each of those

tibble(sim = 1:1000) %>% 
  rowwise() %>% 
  mutate(boot_sample = list(sample(irs$Time, replace = TRUE))) %>% 
  mutate(my_mean = mean(boot_sample)) -> samples
samples

# A tibble: 1,000 × 3
# Rowwise: 
     sim boot_sample my_mean
   <int> <list>        <dbl>
 1     1 <dbl [30]>     196 
 2     2 <dbl [30]>     202.
 3     3 <dbl [30]>     263.
 4     4 <dbl [30]>     173.
 5     5 <dbl [30]>     204.
 6     6 <dbl [30]>     197.
 7     7 <dbl [30]>     210.
 8     8 <dbl [30]>     160.
 9     9 <dbl [30]>     198.
10    10 <dbl [30]>     178.
# ℹ 990 more rows
…
The BCA interval says that the mean should be estimated even higher than the bootstrap percentile interval does.

The BCA interval is the one to trust.

Bootstrapping the correlation

Recall the soap data:

url <- "http://ritsokiguess.site/datafiles/soap.txt"
soap <- read_delim(url," ")
soap

# A tibble: 27 × 4
    case scrap speed line 
   <dbl> <dbl> <dbl> <chr>
 1     1   218   100 a    
 2     2   248   125 a    
 3     3   360   220 a    
 4     4   351   205 a    
 5     5   470   300 a    
 6     6   394   255 a    
 7     7   332   225 a    
 8     8   321   175 a    
 9     9   410   270 a    
10    10   260   170 a    
# ℹ 17 more rows
…
