Bootstrap for sampling distribution of sample mean
…
Getting just the control group

Use filter to select rows where something is true:

kids %>% filter(group=="c") -> controls
controls

# A tibble: 23 × 2
   group score
   <chr> <dbl>
 1 c        42
 2 c        33
 3 c        46
 4 c        37
 5 c        43
 6 c        41
 7 c        10
 8 c        42
 9 c        55
10 c        19
# ℹ 13 more rows
…
