Choosing things in dataframes
…
  Choosing things in dataframes

Packages

The usual:

library(tidyverse)

Doing things with data frames

Let’s go back to our Australian athletes:

athletes

# A tibble: 202 × 13
   Sex    Sport    RCC   WCC    Hc    Hg  Ferr   BMI   SSF `%Bfat`   LBM
   <chr>  <chr>  <dbl> <dbl> <dbl> <dbl> <dbl> <dbl> <dbl>   <dbl> <dbl>
 1 female Netba…  4.56  13.3  42.2  13.6    20  19.2  49      11.3  53.1
 2 female Netba…  4.15   6    38    12.7    59  21.2 110.     25.3  47.1
 3 female Netba…  4.16   7.6  37.5  12.3    22  21.4  89      19.4  53.4
 4 female Netba…  4.32   6.4  37.7  12.3    30  21.0  98.3    19.6  48.8
 5 female Netba…  4.06   5.8  38.7  12.8    78  21.8 122.     23.1  56.0
 6 female Netba…  4.12   6.1  36.6  11.8    21  21.4  90.4    16.9  56.4
 7 female Netba…  4.17   5    37.4  12.7   109  21.5 107.     21.3  53.1
 8 female Netba…  3.8    6.6  36.5  12.4   102  24.4 157.     26.6  54.4
 9 female Netba…  3.96   5.5  36.3  12.4    71  22.6 101.     17.9  56.0
10 female Netba…  4.44   9.7  41.4  14.1    64  22.8 126.     25.0  51.6
# ℹ 192 more rows
# ℹ 2 more variables: Ht <dbl>, Wt <dbl>

Choosing a column

athletes %>% select(Sport)

# A tibble: 202 × 1
   Sport  
   <chr>  
 1 Netball
 2 Netball
 3 Netball
 4 Netball
 5 Netball
 6 Netball
 7 Netball
 8 Netball
 9 Netball
10 Netball
# ℹ 192 more rows

Choosing several columns

athletes %>% select(Sport, Hg, BMI)

# A tibble: 202 × 3
   Sport      Hg   BMI
   <chr>   <dbl> <dbl>
 1 Netball  13.6  19.2
 2 Netball  12.7  21.2
 3 Netball  12.3  21.4
 4 Netball  12.3  21.0
 5 Netball  12.8  21.8
 6 Netball  11.8  21.4
 7 Netball  12.7  21.5
 8 Netball  12.4  24.4
 9 Netball  12.4  22.6
10 Netball  14.1  22.8
# ℹ 192 more rows

Choosing consecutive columns

athletes %>% select(Sex:WCC)

# A tibble: 202 × 4
   Sex    Sport     RCC   WCC
   <chr>  <chr>   <dbl> <dbl>
 1 female Netball  4.56  13.3
 2 female Netball  4.15   6  
 3 female Netball  4.16   7.6
 4 female Netball  4.32   6.4
 5 female Netball  4.06   5.8
 6 female Netball  4.12   6.1
 7 female Netball  4.17   5  
 8 female Netball  3.8    6.6
 9 female Netball  3.96   5.5
10 female Netball  4.44   9.7
# ℹ 192 more rows

Choosing all-but some columns

athletes %>% select(-(RCC:LBM))

# A tibble: 202 × 4
   Sex    Sport      Ht    Wt
   <chr>  <chr>   <dbl> <dbl>
 1 female Netball  177.  59.9
 2 female Netball  173.  63  
 3 female Netball  176   66.3
 4 female Netball  170.  60.7
 5 female Netball  183   72.9
 6 female Netball  178.  67.9
 7 female Netball  177.  67.5
 8 female Netball  174.  74.1
 9 female Netball  174.  68.2
10 female Netball  174.  68.8
# ℹ 192 more rows
…
starts_with something

ends_with something

contains something

matches a “regular expression”

everything() select all the columns

Columns whose names begin with S

athletes %>% select(starts_with("S"))

# A tibble: 202 × 3
   Sex    Sport     SSF
   <chr>  <chr>   <dbl>
 1 female Netball  49  
 2 female Netball 110. 
 3 female Netball  89  
 4 female Netball  98.3
 5 female Netball 122. 
 6 female Netball  90.4
 7 female Netball 107. 
 8 female Netball 157. 
 9 female Netball 101. 
10 female Netball 126. 
# ℹ 192 more rows

Columns whose names end with C

either uppercase or lowercase:

athletes %>% select(ends_with("c"))

# A tibble: 202 × 3
     RCC   WCC    Hc
   <dbl> <dbl> <dbl>
 1  4.56  13.3  42.2
 2  4.15   6    38  
 3  4.16   7.6  37.5
 4  4.32   6.4  37.7
 5  4.06   5.8  38.7
 6  4.12   6.1  36.6
 7  4.17   5    37.4
 8  3.8    6.6  36.5
 9  3.96   5.5  36.3
10  4.44   9.7  41.4
# ℹ 192 more rows

Case-sensitive

This works with any of the select-helpers:

athletes %>% select(ends_with("C", ignore.case=FALSE))

# A tibble: 202 × 2
     RCC   WCC
   <dbl> <dbl>
 1  4.56  13.3
 2  4.15   6  
 3  4.16   7.6
 4  4.32   6.4
 5  4.06   5.8
 6  4.12   6.1
 7  4.17   5  
 8  3.8    6.6
 9  3.96   5.5
10  4.44   9.7
# ℹ 192 more rows

Column names containing letter R

athletes %>% select(contains("r"))

# A tibble: 202 × 3
   Sport     RCC  Ferr
   <chr>   <dbl> <dbl>
 1 Netball  4.56    20
 2 Netball  4.15    59
 3 Netball  4.16    22
 4 Netball  4.32    30
 5 Netball  4.06    78
 6 Netball  4.12    21
 7 Netball  4.17   109
 8 Netball  3.8    102
 9 Netball  3.96    71
10 Netball  4.44    64
# ℹ 192 more rows

Exactly two characters, ending with T

In regular expression terms, this is ^.t$:

^ means “start of text”

. means “exactly one character, but could be anything”

$ means “end of text”.

athletes %>% select(matches("^.t$"))

# A tibble: 202 × 2
      Ht    Wt
   <dbl> <dbl>
 1  177.  59.9
 2  173.  63  
 3  176   66.3
 4  170.  60.7
 5  183   72.9
 6  178.  67.9
 7  177.  67.5
 8  174.  74.1
 9  174.  68.2
10  174.  68.8
# ℹ 192 more rows

Choosing columns by property

Use where as with summarizing several columns

eg, to choose text columns:

athletes %>% select(where(is.character))

# A tibble: 202 × 2
   Sex    Sport  
   <chr>  <chr>  
 1 female Netball
 2 female Netball
 3 female Netball
 4 female Netball
 5 female Netball
 6 female Netball
 7 female Netball
 8 female Netball
 9 female Netball
10 female Netball
# ℹ 192 more rows
…
Either/Or

athletes %>% filter(Sport == "Tennis" | RCC > 5)

# A tibble: 66 × 13
   Sex    Sport    RCC   WCC    Hc    Hg  Ferr   BMI   SSF `%Bfat`   LBM
   <chr>  <chr>  <dbl> <dbl> <dbl> <dbl> <dbl> <dbl> <dbl>   <dbl> <dbl>
 1 female Row     5.02   6.4  44.8  15.2    48  19.8  91      19.2  53.6
 2 female T400m   5.31   9.5  47.1  15.9    29  21.4  57.9    11.1  57.5
 3 female Field   5.33   9.3  47    15      62  25.3 103.     19.5  59.9
 4 female TSprnt  5.16   8.2  45.3  14.7    34  20.3  46.1    10.2  51.5
 5 female Tennis  4      4.2  36.6  12      57  25.4 109      20.9  56.6
 6 female Tennis  4.4    4    40.8  13.9    73  22.1  98.1    19.6  56.0
 7 female Tennis  4.38   7.9  39.8  13.5    88  21.2  80.6    17.1  46.5
 8 female Tennis  4.08   6.6  37.8  12.1   182  20.5  68.3    15.3  51.8
 9 female Tennis  4.98   6.4  44.8  14.8    80  17.1  47.6    11.1  42.2
10 female Tennis  5.16   7.2  44.3  14.5    88  18.3  61.9    12.9  48.8
# ℹ 56 more rows
# ℹ 2 more variables: Ht <dbl>, Wt <dbl>

Sorting into order

athletes %>% arrange(RCC)

# A tibble: 202 × 13
   Sex    Sport    RCC   WCC    Hc    Hg  Ferr   BMI   SSF `%Bfat`   LBM
   <chr>  <chr>  <dbl> <dbl> <dbl> <dbl> <dbl> <dbl> <dbl>   <dbl> <dbl>
 1 female Netba…  3.8    6.6  36.5  12.4   102  24.4 157.     26.6  54.4
 2 female Netba…  3.9    6.3  35.9  12.1    78  20.1  70      15.0  57.3
 3 female T400m   3.9    6    38.9  13.5    16  19.4  48.4    10.5  53.7
 4 female Row     3.91   7.3  37.6  12.9    43  22.3 126.     25.2  54.8
 5 female Netba…  3.95   6.6  38.4  12.8    33  19.9  68.9    15.6  54.1
 6 female Row     3.95   3.3  36.9  12.5    40  24.5  74.9    16.4  63.0
 7 female Netba…  3.96   5.5  36.3  12.4    71  22.6 101.     17.9  56.0
 8 female BBall   3.96   7.5  37.5  12.3    60  20.6 109.     19.8  63.3
 9 female Tennis  4      4.2  36.6  12      57  25.4 109      20.9  56.6
10 female Netba…  4.02   9.1  37.7  12.7   107  23.0  77      18.1  57.3
# ℹ 192 more rows
# ℹ 2 more variables: Ht <dbl>, Wt <dbl>

Breaking ties by another variable

athletes %>% arrange(RCC, BMI)

# A tibble: 202 × 13
   Sex    Sport    RCC   WCC    Hc    Hg  Ferr   BMI   SSF `%Bfat`   LBM
   <chr>  <chr>  <dbl> <dbl> <dbl> <dbl> <dbl> <dbl> <dbl>   <dbl> <dbl>
 1 female Netba…  3.8    6.6  36.5  12.4   102  24.4 157.     26.6  54.4
 2 female T400m   3.9    6    38.9  13.5    16  19.4  48.4    10.5  53.7
 3 female Netba…  3.9    6.3  35.9  12.1    78  20.1  70      15.0  57.3
 4 female Row     3.91   7.3  37.6  12.9    43  22.3 126.     25.2  54.8
 5 female Netba…  3.95   6.6  38.4  12.8    33  19.9  68.9    15.6  54.1
 6 female Row     3.95   3.3  36.9  12.5    40  24.5  74.9    16.4  63.0
 7 female BBall   3.96   7.5  37.5  12.3    60  20.6 109.     19.8  63.3
 8 female Netba…  3.96   5.5  36.3  12.4    71  22.6 101.     17.9  56.0
 9 female Tennis  4      4.2  36.6  12      57  25.4 109      20.9  56.6
10 female Netba…  4.02   9.1  37.7  12.7   107  23.0  77      18.1  57.3
# ℹ 192 more rows
# ℹ 2 more variables: Ht <dbl>, Wt <dbl>

Descending order

athletes %>% arrange(desc(BMI))

# A tibble: 202 × 13
   Sex    Sport   RCC   WCC    Hc    Hg  Ferr   BMI   SSF `%Bfat`   LBM
   <chr>  <chr> <dbl> <dbl> <dbl> <dbl> <dbl> <dbl> <dbl>   <dbl> <dbl>
 1 male   Field  5.48   6.2  48.2  16.3    94  34.4  82.7   13.9  106  
 2 male   Field  4.96   8.3  45.3  15.7   141  33.7 114.    17.4   89  
 3 male   Field  5.48   4.6  49.4  18     132  32.5  55.7    8.51 102  
 4 female Field  4.75   7.5  43.8  15.2    90  31.9 132.    23.0   73.0
 5 male   Field  5.01   8.9  46    15.9   212  30.2 112.    19.9   78  
 6 male   Field  5.01   8.9  46    15.9   212  30.2  96.9   18.1   80  
 7 male   Field  5.09   8.9  46.3  15.4    44  30.0  71.1   14.0   88  
 8 female Field  4.58   5.8  42.1  14.7   164  28.6 110.    21.3   68.9
 9 female Field  4.51   9    39.7  14.3    36  28.1 136.    24.9   63.0
10 male   WPolo  5.34   6.2  49.8  17.2   143  27.8  75.7   13.5   82  
# ℹ 192 more rows
# ℹ 2 more variables: Ht <dbl>, Wt <dbl>
…
Create new variables from old ones

athletes %>%
  mutate(wt_lb = Wt * 2.2) %>%
  select(Sport, Sex, Wt, wt_lb) %>% 
  arrange(Wt)

# A tibble: 202 × 4
   Sport   Sex       Wt wt_lb
   <chr>   <chr>  <dbl> <dbl>
 1 Gym     female  37.8  83.2
 2 Gym     female  43.8  96.4
 3 Gym     female  45.1  99.2
 4 Tennis  female  45.8 101. 
 5 Tennis  female  47.4 104. 
 6 Gym     female  47.8 105. 
 7 T400m   female  49.2 108. 
 8 Row     female  49.8 110. 
 9 T400m   female  50.9 112. 
10 Netball female  51.9 114. 
# ℹ 192 more rows
…
