Cluster analysis
…
It would be a lot easier to extract the first letter if the number names were all in one column.

Tidy, and extract first letter

lang %>% mutate(number=row_number()) %>%
    pivot_longer(-number, names_to="language", values_to="name") %>%
    mutate(first=str_sub(name, 1, 1)) -> lang.long
lang.long 

# A tibble: 110 × 4
   number language name  first
    <int> <chr>    <chr> <chr>
 1      1 en       one   o    
 2      1 no       en    e    
 3      1 dk       en    e    
 4      1 nl       een   e    
 5      1 de       eins  e    
 6      1 fr       un    u    
 7      1 es       uno   u    
 8      1 it       uno   u    
 9      1 pl       jeden j    
10      1 hu       egy   e    
# ℹ 100 more rows
…
languages <- names(lang)
languages

 [1] "en" "no" "dk" "nl" "de" "fr" "es" "it" "pl"
[10] "hu" "fi"

and then all pairs of languages:

pairs <- crossing(lang = languages, lang2 = languages) 

The pairs

pairs

# A tibble: 121 × 2
   lang  lang2
   <chr> <chr>
 1 de    de   
 2 de    dk   
 3 de    en   
 4 de    es   
 5 de    fi   
 6 de    fr   
 7 de    hu   
 8 de    it   
 9 de    nl   
10 de    no   
# ℹ 111 more rows

Run countdiff for all those language pairs

pairs %>% rowwise() %>% 
  mutate(diff = countdiff(lang, lang2, lang.long)) -> thediff
thediff

# A tibble: 121 × 3
# Rowwise: 
   lang  lang2  diff
   <chr> <chr> <int>
 1 de    de        0
 2 de    dk        5
 3 de    en        6
 4 de    es        7
 5 de    fi        9
 6 de    fr        7
 7 de    hu        9
 8 de    it        7
 9 de    nl        5
10 de    no        4
# ℹ 111 more rows
…
url <- "http://ritsokiguess.site/datafiles/birthrate.txt"
vital <- read_table(url)

── Column specification ────────────────────────────────────
cols(
  birth = col_double(),
  death = col_double(),
  infant = col_double(),
  country = col_character()
)

vital

# A tibble: 97 × 4
   birth death infant country       
   <dbl> <dbl>  <dbl> <chr>         
 1  24.7   5.7   30.8 Albania       
 2  13.4  11.7   11.3 Czechoslovakia
 3  11.6  13.4   14.8 Hungary       
 4  13.6  10.7   26.9 Romania       
 5  17.7  10     23   USSR          
 6  13.4  11.6   13   Ukrainian_SSR 
 7  46.6  18    111   Bolivia       
 8  23.4   5.8   17.1 Chile         
 9  32.9   7.4   63   Ecuador       
10  34.8   6.6   42   Paraguay      
# ℹ 87 more rows
…
