Durations, intervals, and periods
…
Rows: 29 Columns: 11
── Column specification ──────────────────────────────────────────────────────────────────
Delimiter: ","
chr (9): name, nationality, date_of_birth, country_of_birth, place_of_birth, position,...
dbl (2): number, age

ℹ Use `spec()` to retrieve the full column specification for this data.
ℹ Specify the column types or set `show_col_types = FALSE` to quiet this message.

The data

man_united

# A tibble: 29 × 3
   name                         date_of_birth      age
   <chr>                        <chr>            <dbl>
 1 David de Gea Quintana        7 November 1990     29
 2 Lee Grant                    27 January 1983     36
 3 Sergio Germán Romero         22 February 1987    32
 4 Victor Nilsson Lindelöf      17 July 1994        25
 5 Eric Bertrand  Bailly        12 April 1994       25
 6 Phil Jones                   21 February 1992    27
 7 Harry Maguire                5 March 1993        26
 8 Faustino Marcos Alberto Rojo 20 March 1990       29
 9 Ashley Young                 9 July 1985         34
10 José Diogo Dalot Teixeira    18 March 1999       20
# ℹ 19 more rows
…
Guess download date and work out ages

Guess January 10, 2020 as download date (just to pick a date):

guess <- ymd("2020-01-10")
man_united %>% 
  mutate(dob = dmy(date_of_birth)) %>% 
  mutate(age_period = as.period(dob %--% guess)) %>% 
  mutate(age_years = year(age_period)) -> d

Results (just the ages)

d %>% select(name, age, age_years)

# A tibble: 29 × 3
   name                           age age_years
   <chr>                        <dbl>     <dbl>
 1 David de Gea Quintana           29        29
 2 Lee Grant                       36        36
 3 Sergio Germán Romero            32        32
 4 Victor Nilsson Lindelöf         25        25
 5 Eric Bertrand  Bailly           25        25
 6 Phil Jones                      27        27
 7 Harry Maguire                   26        26
 8 Faustino Marcos Alberto Rojo    29        29
 9 Ashley Young                    34        34
10 José Diogo Dalot Teixeira       20        20
# ℹ 19 more rows
…
