Factor analysis
…
Some of the data

my_url <- "http://ritsokiguess.site/datafiles/factor.txt"
bem <- read_tsv(my_url)
bem

# A tibble: 369 × 45
   subno helpful reliant defbel yielding cheerful indpt athlet   shy assert
   <dbl>   <dbl>   <dbl>  <dbl>    <dbl>    <dbl> <dbl>  <dbl> <dbl>  <dbl>
 1     1       7       7      5        5        7     7      7     1      7
 2     2       5       6      6        6        2     3      3     3      4
 3     3       7       6      4        4        5     5      2     3      4
 4     4       6       6      7        4        6     6      3     4      4
 5     5       6       6      7        4        7     7      7     2      7
 6     7       5       6      7        4        6     6      2     4      4
 7     8       6       4      6        6        6     3      1     3      3
 8     9       7       6      7        5        6     7      5     2      5
 9    10       7       6      6        4        4     5      2     2      5
10    11       7       4      7        4        7     5      2     1      5
# ℹ 359 more rows
# ℹ 35 more variables: strpers <dbl>, forceful <dbl>, affect <dbl>,
#   flatter <dbl>, loyal <dbl>, analyt <dbl>, feminine <dbl>, sympathy <dbl>,
#   moody <dbl>, sensitiv <dbl>, undstand <dbl>, compass <dbl>, leaderab <dbl>,
#   soothe <dbl>, risk <dbl>, decide <dbl>, selfsuff <dbl>, conscien <dbl>,
#   dominant <dbl>, masculin <dbl>, stand <dbl>, happy <dbl>, softspok <dbl>,
#   warm <dbl>, truthful <dbl>, tender <dbl>, gullible <dbl>, leadact <dbl>, …
…
Idea 1: use percentile ranks as before.

Idea 2: Rating scale is easy to interpret. So tidy original data frame to make easier to look things up.

Tidying original data

bem %>%
ungroup() %>% 
mutate(row = row_number()) %>%
pivot_longer(c(-subno, -row), names_to="trait", 
             values_to="score") -> bem_tidy
bem_tidy

# A tibble: 16,236 × 4
   subno   row trait    score
   <dbl> <int> <chr>    <dbl>
 1     1     1 helpful      7
 2     1     1 reliant      7
 3     1     1 defbel       5
 4     1     1 yielding     5
 5     1     1 cheerful     7
 6     1     1 indpt        7
 7     1     1 athlet       7
 8     1     1 shy          1
 9     1     1 assert       7
10     1     1 strpers      7
# ℹ 16,226 more rows
…
As expected, high scorer on these.

Several individuals

Rows 311 and 214 were low on Factor 2, so their scores should be low. Can we do them all at once?

bem_tidy %>% filter(
row %in% c(366, 311, 214),
abs(Factor2) > 0.4
)

# A tibble: 33 × 6
   subno   row trait    score Factor1 Factor2
   <dbl> <int> <chr>    <dbl>   <dbl>   <dbl>
 1   369   214 affect       1  0.178    0.554
 2   369   214 loyal        7  0.151    0.417
 3   369   214 sympathy     4  0.0230   0.526
 4   369   214 sensitiv     7  0.135    0.424
 5   369   214 undstand     5  0.0911   0.610
 6   369   214 compass      5  0.114    0.627
 7   369   214 soothe       3  0.0606   0.580
 8   369   214 happy        4  0.119    0.430
 9   369   214 warm         1  0.0796   0.719
10   369   214 tender       3  0.0511   0.710
# ℹ 23 more rows
…
