Drawing graphs
…
Rows: 202 Columns: 13
── Column specification ────────────────────────────────────────────────────────
Delimiter: "\t"
chr  (2): Sex, Sport
dbl (11): RCC, WCC, Hc, Hg, Ferr, BMI, SSF, %Bfat, LBM, Ht, Wt

ℹ Use `spec()` to retrieve the full column specification for this data.
ℹ Specify the column types or set `show_col_types = FALSE` to quiet this message.

The data (some)

athletes

# A tibble: 202 × 13
   Sex    Sport     RCC   WCC    Hc    Hg  Ferr   BMI   SSF
   <chr>  <chr>   <dbl> <dbl> <dbl> <dbl> <dbl> <dbl> <dbl>
 1 female Netball  4.56  13.3  42.2  13.6    20  19.2  49  
 2 female Netball  4.15   6    38    12.7    59  21.2 110. 
 3 female Netball  4.16   7.6  37.5  12.3    22  21.4  89  
 4 female Netball  4.32   6.4  37.7  12.3    30  21.0  98.3
 5 female Netball  4.06   5.8  38.7  12.8    78  21.8 122. 
 6 female Netball  4.12   6.1  36.6  11.8    21  21.4  90.4
 7 female Netball  4.17   5    37.4  12.7   109  21.5 107. 
 8 female Netball  3.8    6.6  36.5  12.4   102  24.4 157. 
 9 female Netball  3.96   5.5  36.3  12.4    71  22.6 101. 
10 female Netball  4.44   9.7  41.4  14.1    64  22.8 126. 
# ℹ 192 more rows
# ℹ 4 more variables: `%Bfat` <dbl>, LBM <dbl>, Ht <dbl>,
#   Wt <dbl>
…
