Statistical inference: one and two-sample t-tests
…
Rows: 25 Columns: 21
── Column specification ────────────────────────────────────────────────────────
Delimiter: ","
chr  (12): date, box, team, opp, result, wl, gb, winner, loser, save, Daynig...
dbl   (7): row, game, runs, Oppruns, innings, position, attendance
lgl   (1): venue
time  (1): game time

ℹ Use `spec()` to retrieve the full column specification for this data.
ℹ Specify the column types or set `show_col_types = FALSE` to quiet this message.

jays

# A tibble: 25 × 21
     row  game date   box   team  venue opp   result  runs Oppruns innings wl   
   <dbl> <dbl> <chr>  <chr> <chr> <lgl> <chr> <chr>  <dbl>   <dbl>   <dbl> <chr>
 1    82     7 Monda… boxs… TOR   NA    TBR   L          1       2      NA 4-3  
 2    83     8 Tuesd… boxs… TOR   NA    TBR   L          2       3      NA 4-4  
 3    84     9 Wedne… boxs… TOR   NA    TBR   W         12       7      NA 5-4  
 4    85    10 Thurs… boxs… TOR   NA    TBR   L          2       4      NA 5-5  
 5    86    11 Frida… boxs… TOR   NA    ATL   L          7       8      NA 5-6  
 6    87    12 Satur… boxs… TOR   NA    ATL   W-wo       6       5      10 6-6  
 7    88    13 Sunda… boxs… TOR   NA    ATL   L          2       5      NA 6-7  
 8    89    14 Tuesd… boxs… TOR   NA    BAL   W         13       6      NA 7-7  
 9    90    15 Wedne… boxs… TOR   NA    BAL   W          4       2      NA 8-7  
10    91    16 Thurs… boxs… TOR   NA    BAL   W          7       6      NA 9-7  
# ℹ 15 more rows
# ℹ 9 more variables: position <dbl>, gb <chr>, winner <chr>, loser <chr>,
#   save <chr>, `game time` <time>, Daynight <chr>, attendance <dbl>,
#   streak <chr>
…
Rows: 44 Columns: 2
── Column specification ────────────────────────────────────────────────
Delimiter: " "
chr (1): group
dbl (1): score

ℹ Use `spec()` to retrieve the full column specification for this data.
ℹ Specify the column types or set `show_col_types = FALSE` to quiet this message.

The data

kids

# A tibble: 44 × 2
   group score
   <chr> <dbl>
 1 t        24
 2 t        61
 3 t        59
 4 t        46
 5 t        43
 6 t        44
 7 t        52
 8 t        43
 9 t        58
10 t        67
# ℹ 34 more rows
…
