The sign test
…
One of their forms is supposed to take no more than 160 minutes to complete. A citizen’s organization claims that it takes people longer than that on average.

Sample of 30 people; time to complete form recorded.

Read in data, and do \(t\)-test of \(H_0 : \mu = 160\) vs. \(H_a : \mu > 160\).

For reading in, there is only one column, so can pretend it is delimited by anything.

Read in data

my_url <- "http://ritsokiguess.site/datafiles/irs.txt"
irs <- read_csv(my_url)
irs

# A tibble: 30 × 1
    Time
   <dbl>
 1    91
 2    64
 3   243
 4   167
 5   123
 6    65
 7    71
 8   204
 9   110
10   178
# ℹ 20 more rows
…
