Logistic Regression
…
my_url <- 
  "http://ritsokiguess.site/datafiles/sepsis.txt"
sepsis <- read_delim(my_url, " ")

Make sure categoricals really are

sepsis %>% 
  mutate(across(-age, \(x) factor(x))) -> sepsis

The data (some)

sepsis

# A tibble: 106 × 6
   death shock malnut alcohol   age bowelinf
   <fct> <fct> <fct>  <fct>   <dbl> <fct>   
 1 0     0     0      0          56 0       
 2 0     0     0      0          80 0       
 3 0     0     0      0          61 0       
 4 0     0     0      0          26 0       
 5 0     0     0      0          53 0       
 6 1     0     1      0          87 0       
 7 0     0     0      0          21 0       
 8 1     0     0      1          69 0       
 9 0     0     0      0          57 0       
10 0     0     1      0          76 0       
# ℹ 96 more rows
…
Tidying

freqs %>%
  pivot_longer(-Exposure, names_to = "Severity", values_to = "Freq") %>%
  mutate(Severity = fct_inorder(Severity)) -> miners

Result

miners

# A tibble: 24 × 3
   Exposure Severity  Freq
      <dbl> <fct>    <dbl>
 1      5.8 None        98
 2      5.8 Moderate     0
 3      5.8 Severe       0
 4     15   None        51
 5     15   Moderate     2
 6     15   Severe       1
 7     21.5 None        34
 8     21.5 Moderate     6
 9     21.5 Severe       3
10     27.5 None        35
# ℹ 14 more rows
…
Reminder of data setup

miners

# A tibble: 24 × 3
   Exposure Severity  Freq
      <dbl> <fct>    <dbl>
 1      5.8 None        98
 2      5.8 Moderate     0
 3      5.8 Severe       0
 4     15   None        51
 5     15   Moderate     2
 6     15   Severe       1
 7     21.5 None        34
 8     21.5 Moderate     6
 9     21.5 Severe       3
10     27.5 None        35
# ℹ 14 more rows
…
With unordered (nominal) responses, can use generalized logit.

Example: 735 people, record age and sex (male 0, female 1), which of 3 brands of some product preferred.

Data in mlogit.csv separated by commas (so read_csv will work):

my_url <- "http://ritsokiguess.site/datafiles/mlogit.csv"
brandpref <- read_csv(my_url)

The data (some)

brandpref

# A tibble: 735 × 3
   brand   sex   age
   <dbl> <dbl> <dbl>
 1     1     0    24
 2     1     0    26
 3     1     0    26
 4     1     1    27
 5     1     1    27
 6     3     1    27
 7     1     0    27
 8     1     0    27
 9     1     1    27
10     1     0    27
# ℹ 725 more rows
…
Brand vs. age: younger people (of both genders) prefer brand 1, but older people (of both genders) prefer brand 3. (Explains significant age effect.)

Brand vs. sex: females (solid) like brand 1 less than males (dashed), like brand 2 more (for all ages).

Not much brand difference between genders (solid and dashed lines of same colours close), but enough to be significant.

Model didn’t include interaction, so modelled effect of gender on brand same for each age, modelled effect of age same for each gender. (See also later.)

Alternative data format

Summarize all people of same brand preference, same sex, same age on one line of data file with frequency on end:

brandpref

# A tibble: 735 × 3
   brand sex      age
   <fct> <fct>  <dbl>
 1 1     male      24
 2 1     male      26
 3 1     male      26
 4 1     female    27
 5 1     female    27
 6 3     female    27
 7 1     male      27
 8 1     male      27
 9 1     female    27
10 1     male      27
# ℹ 725 more rows
…
Whole data set in 65 lines not 735! But how?

Getting alternative data format

brandpref %>%
  group_by(age, sex, brand) %>%
  summarize(Freq = n()) %>%
  ungroup() -> b
b

# A tibble: 65 × 4
     age sex    brand  Freq
   <dbl> <fct>  <fct> <int>
 1    24 male   1         1
 2    26 male   1         2
 3    27 female 1         4
 4    27 female 3         1
 5    27 male   1         4
 6    28 female 1         6
 7    28 female 2         2
 8    28 female 3         1
 9    28 male   1         4
10    28 male   3         2
# ℹ 55 more rows
…
