Repeated measures analysis
…
Plotting works with data in “long format”: one response per line.

The responses are log-histamine at different times, labelled lh-something. Call them all lh and put them in one column, with the time they belong to labelled.

Running pivot_longer, try 1

dogs %>% pivot_longer(starts_with("lh"), 
                      names_to = "time", values_to = "lh") 

# A tibble: 32 × 5
   dog   drug     x     time     lh
   <chr> <chr>    <chr> <chr> <dbl>
 1 A     Morphine N     lh0   -3.22
 2 A     Morphine N     lh1   -1.61
 3 A     Morphine N     lh3   -2.3 
 4 A     Morphine N     lh5   -2.53
 5 B     Morphine N     lh0   -3.91
 6 B     Morphine N     lh1   -2.81
 7 B     Morphine N     lh3   -3.91
 8 B     Morphine N     lh5   -3.91
 9 C     Morphine N     lh0   -2.66
10 C     Morphine N     lh1    0.34
# ℹ 22 more rows

Getting the times

Not quite right: for the times, we want just the numbers, not the letters lh every time. Want new variable containing just number in time: parse_number.

dogs %>%
  pivot_longer(starts_with("lh"), 
               names_to = "timex", values_to = "lh") %>% 
  mutate(time = parse_number(timex)) 

# A tibble: 32 × 6
   dog   drug     x     timex    lh  time
   <chr> <chr>    <chr> <chr> <dbl> <dbl>
 1 A     Morphine N     lh0   -3.22     0
 2 A     Morphine N     lh1   -1.61     1
 3 A     Morphine N     lh3   -2.3      3
 4 A     Morphine N     lh5   -2.53     5
 5 B     Morphine N     lh0   -3.91     0
 6 B     Morphine N     lh1   -2.81     1
 7 B     Morphine N     lh3   -3.91     3
 8 B     Morphine N     lh5   -3.91     5
 9 C     Morphine N     lh0   -2.66     0
10 C     Morphine N     lh1    0.34     1
# ℹ 22 more rows
…
I realized that pivot_longer was going to produce something like lh1, which I needed to do something further with, so this time I gave it a temporary name timex.

This enabled me to use the name time for the actual numeric time.

This works now, so next save into a new data frame dogs.long.

Saving the pipelined results

dogs %>%
  pivot_longer(starts_with("lh"), 
               names_to = "timex", values_to = "lh") %>% 
  mutate(time = parse_number(timex)) -> dogs.long
dogs.long

# A tibble: 32 × 6
   dog   drug     x     timex    lh  time
   <chr> <chr>    <chr> <chr> <dbl> <dbl>
 1 A     Morphine N     lh0   -3.22     0
 2 A     Morphine N     lh1   -1.61     1
 3 A     Morphine N     lh3   -2.3      3
 4 A     Morphine N     lh5   -2.53     5
 5 B     Morphine N     lh0   -3.91     0
 6 B     Morphine N     lh1   -2.81     1
 7 B     Morphine N     lh3   -3.91     3
 8 B     Morphine N     lh5   -3.91     5
 9 C     Morphine N     lh0   -2.66     0
10 C     Morphine N     lh1    0.34     1
# ℹ 22 more rows
…
There are \(2\times3 = 6\) experimental treatments, and thus each one is replicated \(30/6=5\) times.

Nothing unusual so far.

However, each subject had their pulse rate measured at three different times (1, 15 and 30 minutes after starting their exercise), so have repeated measures.

Reading the data

Separated by tabs:

url <- "http://ritsokiguess.site/datafiles/exercise2.txt"
exercise.long <- read_tsv(url)
exercise.long

# A tibble: 90 × 5
      id diet      exertype pulse time 
   <dbl> <chr>     <chr>    <dbl> <chr>
 1     1 nonlowfat atrest      85 min01
 2     1 nonlowfat atrest      85 min15
 3     1 nonlowfat atrest      88 min30
 4     2 nonlowfat atrest      90 min01
 5     2 nonlowfat atrest      92 min15
 6     2 nonlowfat atrest      93 min30
 7     3 nonlowfat atrest      97 min01
 8     3 nonlowfat atrest      97 min15
 9     3 nonlowfat atrest      94 min30
10     4 nonlowfat atrest      80 min01
# ℹ 80 more rows
…
