Reading data files
…
coffee <- read_delim("coffee.txt", " ")

Rows: 32 Columns: 2
── Column specification ────────────────────────────────────────────────────────
Delimiter: " "
chr (1): cup
dbl (1): tempdiff

ℹ Use `spec()` to retrieve the full column specification for this data.
ℹ Specify the column types or set `show_col_types = FALSE` to quiet this message.

coffee

# A tibble: 32 × 2
   cup       tempdiff
   <chr>        <dbl>
 1 Starbucks     13  
 2 Starbucks      7  
 3 Starbucks      7  
 4 Starbucks     17.5
 5 Starbucks     10  
 6 Starbucks     15.5
 7 Starbucks      6  
 8 Starbucks      6  
 9 SIGG          12  
10 SIGG          16  
# ℹ 22 more rows

Name of the cup, text, and tempdiff, a decimal number.

Looking at the values (some)

coffee

# A tibble: 32 × 2
   cup       tempdiff
   <chr>        <dbl>
 1 Starbucks     13  
 2 Starbucks      7  
 3 Starbucks      7  
 4 Starbucks     17.5
 5 Starbucks     10  
 6 Starbucks     15.5
 7 Starbucks      6  
 8 Starbucks      6  
 9 SIGG          12  
10 SIGG          16  
# ℹ 22 more rows
…
Rows: 27 Columns: 4
── Column specification ────────────────────────────────────────────────────────
Delimiter: " "
chr (1): line
dbl (3): case, scrap, speed

ℹ Use `spec()` to retrieve the full column specification for this data.
ℹ Specify the column types or set `show_col_types = FALSE` to quiet this message.

The soap data (some)

soap

# A tibble: 27 × 4
    case scrap speed line 
   <dbl> <dbl> <dbl> <chr>
 1     1   218   100 a    
 2     2   248   125 a    
 3     3   360   220 a    
 4     4   351   205 a    
 5     5   470   300 a    
 6     6   394   255 a    
 7     7   332   225 a    
 8     8   321   175 a    
 9     9   410   270 a    
10    10   260   170 a    
# ℹ 17 more rows
…
