Regression revisited
…
Rows: 465 Columns: 5
── Column specification ────────────────────────────────────
Delimiter: " "
dbl (5): subjno, timedrs, phyheal, menheal, stress

ℹ Use `spec()` to retrieve the full column specification for this data.
ℹ Specify the column types or set `show_col_types = FALSE` to quiet this message.

Check data

visits

# A tibble: 465 × 5
   subjno timedrs phyheal menheal stress
    <dbl>   <dbl>   <dbl>   <dbl>  <dbl>
 1      1       1       5       8    265
 2      2       3       4       6    415
 3      3       0       3       4     92
 4      4      13       2       2    241
 5      5      15       3       6     86
 6      6       3       5       5    247
 7      7       2       5       6     13
 8      8       0       4       5     12
 9      9       7       5       4    269
10     10       4       3       9    391
# ℹ 455 more rows
…
