Bayesian Statistics with Stan
…
# ... with 995 more iterations

A 3-dimensional array. A dataframe would be much better.

Sampled values as dataframe

as_draws_df(poisson2_fit$draws()) %>% 
  as_tibble() -> poisson2_draws
poisson2_draws

# A tibble: 4,000 × 5
    lp__ lambda .chain .iteration .draw
   <dbl>  <dbl>  <int>      <int> <int>
 1  4.19   3.43      1          1     1
 2  3.94   2.72      1          2     2
 3  4.09   2.84      1          3     3
 4  4.20   3.41      1          4     4
 5  3.93   3.72      1          5     5
 6  4.17   2.93      1          6     6
 7  4.05   2.81      1          7     7
 8  4.13   3.53      1          8     8
 9  2.46   2.15      1          9     9
10  3.08   2.33      1         10    10
# ℹ 3,990 more rows

Posterior predictive distribution

Another use for the actual sampled values is to see what kind of response values we might get in the future. This should look something like our data. For a Poisson distribution, the response values are integers:

poisson2_draws %>% 
  rowwise() %>% 
  mutate(xsim = rpois(1, lambda)) -> d

The simulated posterior distribution (in xsim)

d %>% select(lambda, xsim)

# A tibble: 4,000 × 2
# Rowwise: 
   lambda  xsim
    <dbl> <int>
 1   3.43     4
 2   2.72     4
 3   2.84     4
 4   3.41     3
 5   3.72     2
 6   2.93     2
 7   2.81     4
 8   3.53     4
 9   2.15     2
10   2.33     2
# ℹ 3,990 more rows
…
Analysis of variance, the Bayesian way

Recall the jumping rats data:

my_url <- 
  "http://ritsokiguess.site/datafiles/jumping.txt"
rats0 <- read_delim(my_url, " ")
rats0

# A tibble: 30 × 2
   group   density
   <chr>     <dbl>
 1 Control     611
 2 Control     621
 3 Control     614
 4 Control     593
 5 Control     593
 6 Control     653
 7 Control     600
 8 Control     554
 9 Control     603
10 Control     569
# ℹ 20 more rows
…
Numbering the groups

Stan doesn’t handle categorical variables (everything is real or int).

Turn the groups into group numbers first.

Take opportunity to put groups in logical order:

rats0 %>% mutate(
  group_fct = fct_inorder(group),
  group_no = as.integer(group_fct)
) -> rats
rats

# A tibble: 30 × 4
   group   density group_fct group_no
   <chr>     <dbl> <fct>        <int>
 1 Control     611 Control          1
 2 Control     621 Control          1
 3 Control     614 Control          1
 4 Control     593 Control          1
 5 Control     593 Control          1
 6 Control     653 Control          1
 7 Control     600 Control          1
 8 Control     554 Control          1
 9 Control     603 Control          1
10 Control     569 Control          1
# ℹ 20 more rows
…
Extract the sampled values

as_draws_df(anova_fit$draws()) %>% as_tibble() -> anova_draws
anova_draws

# A tibble: 4,000 × 8
    lp__ `mu[1]` `mu[2]` `mu[3]` sigma .chain .iteration .draw
   <dbl>   <dbl>   <dbl>   <dbl> <dbl>  <int>      <int> <int>
 1 -42.8    588.    622.    619.  31.6      1          1     1
 2 -41.5    603.    595.    630.  32.3      1          2     2
 3 -42.3    603.    631.    635.  24.1      1          3     3
 4 -41.4    606.    614.    643.  36.3      1          4     4
 5 -40.5    604.    616.    630.  22.2      1          5     5
 6 -40.0    599.    613.    645.  31.4      1          6     6
 7 -40.8    586.    606.    634.  27.0      1          7     7
 8 -42.8    616.    602.    637.  37.3      1          8     8
 9 -40.3    590.    606.    632.  28.9      1          9     9
10 -40.5    616.    609.    638.  27.0      1         10    10
# ℹ 3,990 more rows
…
anova_draws %>% 
  pivot_longer(starts_with("mu"), 
               names_to = "group", 
               values_to = "bone_density") %>% 
  mutate(group = fct_recode(group,
    Control = "mu[1]",
    Lowjump = "mu[2]",
    Highjump = "mu[3]"
  )) -> sims

What we have now:

sims 

# A tibble: 12,000 × 7
    lp__ sigma .chain .iteration .draw group    bone_density
   <dbl> <dbl>  <int>      <int> <int> <fct>           <dbl>
 1 -42.8  31.6      1          1     1 Control          588.
 2 -42.8  31.6      1          1     1 Lowjump          622.
 3 -42.8  31.6      1          1     1 Highjump         619.
 4 -41.5  32.3      1          2     2 Control          603.
 5 -41.5  32.3      1          2     2 Lowjump          595.
 6 -41.5  32.3      1          2     2 Highjump         630.
 7 -42.3  24.1      1          3     3 Control          603.
 8 -42.3  24.1      1          3     3 Lowjump          631.
 9 -42.3  24.1      1          3     3 Highjump         635.
10 -41.4  36.3      1          4     4 Control          606.
# ℹ 11,990 more rows
…
Posterior predictive distributions

Randomly sample from posterior means and SDs in sims. There are 12000 rows in sims:

sims %>% mutate(sim_data = rnorm(12000, bone_density, sigma)) -> ppd
ppd

# A tibble: 12,000 × 8
    lp__ sigma .chain .iteration .draw group    bone_density sim_data
   <dbl> <dbl>  <int>      <int> <int> <fct>           <dbl>    <dbl>
 1 -42.8  31.6      1          1     1 Control          588.     567.
 2 -42.8  31.6      1          1     1 Lowjump          622.     608.
 3 -42.8  31.6      1          1     1 Highjump         619.     616.
 4 -41.5  32.3      1          2     2 Control          603.     579.
 5 -41.5  32.3      1          2     2 Lowjump          595.     572.
 6 -41.5  32.3      1          2     2 Highjump         630.     640.
 7 -42.3  24.1      1          3     3 Control          603.     611.
 8 -42.3  24.1      1          3     3 Lowjump          631.     650.
 9 -42.3  24.1      1          3     3 Highjump         635.     650.
10 -41.4  36.3      1          4     4 Control          606.     582.
# ℹ 11,990 more rows
…
