tidying_r
…
Rows: 5769 Columns: 22
── Column specification ────────────────────────────────────────────────────────
Delimiter: ","
chr  (1): iso2
dbl (21): year, m04, m514, m014, m1524, m2534, m3544, m4554, m5564, m65, mu,...

ℹ Use `spec()` to retrieve the full column specification for this data.
ℹ Specify the column types or set `show_col_types = FALSE` to quiet this message.

The data (messed up)

tb

# A tibble: 5,769 × 22
   iso2   year   m04  m514  m014 m1524 m2534 m3544 m4554 m5564   m65    mu   f04
   <chr> <dbl> <dbl> <dbl> <dbl> <dbl> <dbl> <dbl> <dbl> <dbl> <dbl> <dbl> <dbl>
 1 AD     1989    NA    NA    NA    NA    NA    NA    NA    NA    NA    NA    NA
 2 AD     1990    NA    NA    NA    NA    NA    NA    NA    NA    NA    NA    NA
 3 AD     1991    NA    NA    NA    NA    NA    NA    NA    NA    NA    NA    NA
 4 AD     1992    NA    NA    NA    NA    NA    NA    NA    NA    NA    NA    NA
 5 AD     1993    NA    NA    NA    NA    NA    NA    NA    NA    NA    NA    NA
 6 AD     1994    NA    NA    NA    NA    NA    NA    NA    NA    NA    NA    NA
 7 AD     1996    NA    NA     0     0     0     4     1     0     0    NA    NA
 8 AD     1997    NA    NA     0     0     1     2     2     1     6    NA    NA
 9 AD     1998    NA    NA     0     0     0     1     0     0     0    NA    NA
10 AD     1999    NA    NA     0     0     0     1     1     0     0    NA    NA
# ℹ 5,759 more rows
# ℹ 9 more variables: f514 <dbl>, f014 <dbl>, f1524 <dbl>, f2534 <dbl>,
#   f3544 <dbl>, f4554 <dbl>, f5564 <dbl>, f65 <dbl>, fu <dbl>
…
columns to make longer

column to contain the names

column to contain the values

(optional) drop missings in the values

Results (some)

tb2

# A tibble: 35,750 × 4
   iso2   year genage  freq
   <chr> <dbl> <chr>  <dbl>
 1 AD     1996 m014       0
 2 AD     1996 m1524      0
 3 AD     1996 m2534      0
 4 AD     1996 m3544      4
 5 AD     1996 m4554      1
 6 AD     1996 m5564      0
 7 AD     1996 m65        0
 8 AD     1996 f014       0
 9 AD     1996 f1524      1
10 AD     1996 f2534      1
# ℹ 35,740 more rows
…
what to separate (no quotes needed),

what to separate into (here you do need quotes),

how to split.

For “how to split”, here “after first character”:

tb2 %>% separate(genage, c("gender", "age"), 1) -> tb3

Tidied tuberculosis data (some)

tb3

# A tibble: 35,750 × 5
   iso2   year gender age    freq
   <chr> <dbl> <chr>  <chr> <dbl>
 1 AD     1996 m      014       0
 2 AD     1996 m      1524      0
 3 AD     1996 m      2534      0
 4 AD     1996 m      3544      4
 5 AD     1996 m      4554      1
 6 AD     1996 m      5564      0
 7 AD     1996 m      65        0
 8 AD     1996 f      014       0
 9 AD     1996 f      1524      1
10 AD     1996 f      2534      1
# ℹ 35,740 more rows

In practice…

instead of doing the pipe one step at a time, you debug it one step at a time, and when you have each step working, you use that step’s output as input to the next step, thus:

tb %>%
  pivot_longer(m04:fu, names_to = "genage", 
               values_to = "freq", values_drop_na = T) %>% 
  separate(genage, c("gender", "age"), 1) 

# A tibble: 35,750 × 5
   iso2   year gender age    freq
   <chr> <dbl> <chr>  <chr> <dbl>
 1 AD     1996 m      014       0
 2 AD     1996 m      1524      0
 3 AD     1996 m      2534      0
 4 AD     1996 m      3544      4
 5 AD     1996 m      4554      1
 6 AD     1996 m      5564      0
 7 AD     1996 m      65        0
 8 AD     1996 f      014       0
 9 AD     1996 f      1524      1
10 AD     1996 f      2534      1
# ℹ 35,740 more rows
…
Something very interesting happened between 1994 and 1995.

To find out what

try counting up total cases by country:

tb3 %>% group_by(iso2) %>% 
  summarize(total=sum(freq)) %>% 
  arrange(desc(total))

# A tibble: 213 × 2
   iso2    total
   <chr>   <dbl>
 1 CN    4065174
 2 IN    3966169
 3 ID    1129015
 4 ZA     900349
 5 BD     758008
 6 VN     709695
 7 CD     603095
 8 PH     490040
 9 BR     440609
10 KE     431523
# ℹ 203 more rows
…
Rows: 24 Columns: 35
── Column specification ────────────────────────────────────────────────────────
Delimiter: ","
chr  (3): station, Month, element
dbl (32): Year, d01, d02, d03, d04, d05, d06, d07, d08, d09, d10, d11, d12, ...

ℹ Use `spec()` to retrieve the full column specification for this data.
ℹ Specify the column types or set `show_col_types = FALSE` to quiet this message.

The data (some, messed up)

weather

# A tibble: 24 × 35
   station    Year Month element   d01   d02   d03   d04   d05   d06   d07   d08
   <chr>     <dbl> <chr> <chr>   <dbl> <dbl> <dbl> <dbl> <dbl> <dbl> <dbl> <dbl>
 1 TORONTO …  2018 01    tmax     -7.9  -7.1  -5.3  -7.7 -14.7 -15.4  -1     3  
 2 TORONTO …  2018 01    tmin    -18.6 -12.5 -11.2 -19.7 -20.6 -22.3 -17.5  -1.7
 3 TORONTO …  2018 02    tmax      5.6  -8.6   0.4   1.8  -6.6  -3.2  -4.1  -5.2
 4 TORONTO …  2018 02    tmin     -8.9 -15    -9.7  -8.8 -12    -8.2  -8.7  -9.7
 5 TORONTO …  2018 03    tmax     NA    NA    NA    NA    NA    NA     3.1   0.5
 6 TORONTO …  2018 03    tmin     NA    -0.5  NA    -3.1  NA    -1.4   0.4  -2.5
 7 TORONTO …  2018 04    tmax      4.5   6.5   5     5.7   2.9   5.4   2     2.7
 8 TORONTO …  2018 04    tmin     -2.6  -1.2   2.4  -3.2  -3.9  -2.6  -4.4  -3.6
 9 TORONTO …  2018 05    tmax     23.5  26.3  23    24    24.1  17.4  15.9  18.2
10 TORONTO …  2018 05    tmin      8.5  14.4  11.4   9.2   8.5  13.3  10.6   8.5
# ℹ 14 more rows
# ℹ 23 more variables: d09 <dbl>, d10 <dbl>, d11 <dbl>, d12 <dbl>, d13 <dbl>,
#   d14 <dbl>, d15 <dbl>, d16 <dbl>, d17 <dbl>, d18 <dbl>, d19 <dbl>,
#   d20 <dbl>, d21 <dbl>, d22 <dbl>, d23 <dbl>, d24 <dbl>, d25 <dbl>,
#   d26 <dbl>, d27 <dbl>, d28 <dbl>, d29 <dbl>, d30 <dbl>, d31 <dbl>
…
d01, d02,… d31: day of the month from 1st to 31st.

Numbers in data frame all temperatures (for different days of the month), so first step is

weather %>% 
  pivot_longer(d01:d31, names_to="day", 
               values_to="temperature", 
               values_drop_na = T) -> d

So far

d

# A tibble: 703 × 6
   station       Year Month element day   temperature
   <chr>        <dbl> <chr> <chr>   <chr>       <dbl>
 1 TORONTO CITY  2018 01    tmax    d01          -7.9
 2 TORONTO CITY  2018 01    tmax    d02          -7.1
 3 TORONTO CITY  2018 01    tmax    d03          -5.3
 4 TORONTO CITY  2018 01    tmax    d04          -7.7
 5 TORONTO CITY  2018 01    tmax    d05         -14.7
 6 TORONTO CITY  2018 01    tmax    d06         -15.4
 7 TORONTO CITY  2018 01    tmax    d07          -1  
 8 TORONTO CITY  2018 01    tmax    d08           3  
 9 TORONTO CITY  2018 01    tmax    d09           1.6
10 TORONTO CITY  2018 01    tmax    d10           5.9
# ℹ 693 more rows
…
Untangling names of variables handled by pivot_wider:

weather %>%
  pivot_longer(d01:d31, names_to="day", 
               values_to="temperature", 
               values_drop_na = T) %>% 
  pivot_wider(names_from=element, 
                values_from=temperature) -> d

So far

d

# A tibble: 355 × 6
   station       Year Month day    tmax  tmin
   <chr>        <dbl> <chr> <chr> <dbl> <dbl>
 1 TORONTO CITY  2018 01    d01    -7.9 -18.6
 2 TORONTO CITY  2018 01    d02    -7.1 -12.5
 3 TORONTO CITY  2018 01    d03    -5.3 -11.2
 4 TORONTO CITY  2018 01    d04    -7.7 -19.7
 5 TORONTO CITY  2018 01    d05   -14.7 -20.6
 6 TORONTO CITY  2018 01    d06   -15.4 -22.3
 7 TORONTO CITY  2018 01    d07    -1   -17.5
 8 TORONTO CITY  2018 01    d08     3    -1.7
 9 TORONTO CITY  2018 01    d09     1.6  -0.6
10 TORONTO CITY  2018 01    d10     5.9  -1.3
# ℹ 345 more rows
…
select keeps columns (or drops, with minus). Station name has no value to us:

weather %>%
  pivot_longer(d01:d31, names_to="day", 
               values_to="temperature", values_drop_na = T) %>% 
  pivot_wider(names_from=element, values_from=temperature) %>% 
  mutate(Day = parse_number(day)) %>%
  select(-station) -> d

So far

d

# A tibble: 355 × 6
    Year Month day    tmax  tmin   Day
   <dbl> <chr> <chr> <dbl> <dbl> <dbl>
 1  2018 01    d01    -7.9 -18.6     1
 2  2018 01    d02    -7.1 -12.5     2
 3  2018 01    d03    -5.3 -11.2     3
 4  2018 01    d04    -7.7 -19.7     4
 5  2018 01    d05   -14.7 -20.6     5
 6  2018 01    d06   -15.4 -22.3     6
 7  2018 01    d07    -1   -17.5     7
 8  2018 01    d08     3    -1.7     8
 9  2018 01    d09     1.6  -0.6     9
10  2018 01    d10     5.9  -1.3    10
# ℹ 345 more rows
…
weather %>%
  pivot_longer(d01:d31, names_to="day", 
               values_to="temperature", values_drop_na = T) %>% 
  pivot_wider(names_from=element, values_from=temperature) %>% 
  mutate(Day = parse_number(day)) %>%
  select(-station) %>% 
  unite(datestr, c(Year, Month, Day), sep = "-") %>%
  mutate(date = as.Date(datestr)) %>%
  select(c(date, tmax, tmin)) -> weather_tidy

Our tidy data frame

weather_tidy

# A tibble: 355 × 3
   date        tmax  tmin
   <date>     <dbl> <dbl>
 1 2018-01-01  -7.9 -18.6
 2 2018-01-02  -7.1 -12.5
 3 2018-01-03  -5.3 -11.2
 4 2018-01-04  -7.7 -19.7
 5 2018-01-05 -14.7 -20.6
 6 2018-01-06 -15.4 -22.3
 7 2018-01-07  -1   -17.5
 8 2018-01-08   3    -1.7
 9 2018-01-09   1.6  -0.6
10 2018-01-10   5.9  -1.3
# ℹ 345 more rows
…
