Case study: windmill
…
Can we model relationship to do predictions?

Packages for this section

library(tidyverse)
library(broom)

Reading in the data

my_url <- 
  "http://ritsokiguess.site/datafiles/windmill.csv"
windmill <- read_csv(my_url)
windmill

# A tibble: 25 × 2
   wind_velocity DC_output
           <dbl>     <dbl>
 1          5        1.58 
 2          6        1.82 
 3          3.4      1.06 
 4          2.7      0.5  
 5         10        2.24 
 6          9.7      2.39 
 7          9.55     2.29 
 8          3.05     0.558
 9          8.15     2.17 
10          6.2      1.87 
# ℹ 15 more rows
…
First make data frame containing what we need, taken from the right places:

w2 <- tibble(
  wind_velocity = windmill$wind_velocity,
  DC_output = windmill$DC_output,
  linear = fitted(DC.1),
  parabola = fitted(DC.2),
  asymptote = fitted(DC.3)
)

What’s in w2

w2

# A tibble: 25 × 5
   wind_velocity DC_output linear parabola asymptote
           <dbl>     <dbl>  <dbl>    <dbl>     <dbl>
 1          5        1.58   1.34     1.51      1.59 
 2          6        1.82   1.58     1.81      1.82 
 3          3.4      1.06   0.951    0.861     0.939
 4          2.7      0.5    0.782    0.518     0.411
 5         10        2.24   2.54     2.26      2.29 
 6          9.7      2.39   2.47     2.27      2.26 
 7          9.55     2.29   2.43     2.27      2.25 
 8          3.05     0.558  0.866    0.694     0.705
 9          8.15     2.17   2.10     2.20      2.13 
10          6.2      1.87   1.63     1.86      1.86 
# ℹ 15 more rows
…
Linear model had just wind_velocity.

Parabola model had that as well (squared one will be calculated)

Asymptote model had just wind_pace (reciprocal of velocity).

So create data frame called wv_new with those in:

wv_new <- tibble(wind_velocity = wv, wind_pace = 1 / wv)

wv_new

wv_new

# A tibble: 31 × 2
   wind_velocity wind_pace
           <dbl>     <dbl>
 1           1       1    
 2           1.5     0.667
 3           2       0.5  
 4           2.5     0.4  
 5           3       0.333
 6           3.5     0.286
 7           4       0.25 
 8           4.5     0.222
 9           5       0.2  
10           5.5     0.182
# ℹ 21 more rows
…
Put it all into a data frame for plotting, along with original data:

my_fits <- tibble(
  wind_velocity = wv_new$wind_velocity,
  linear, parabola, asymptote
)

my_fits

my_fits

# A tibble: 31 × 4
   wind_velocity linear parabola asymptote
           <dbl>  <dbl>    <dbl>     <dbl>
 1           1    0.372   -0.471    -3.96 
 2           1.5  0.493   -0.157    -1.64 
 3           2    0.613    0.137    -0.488
 4           2.5  0.734    0.413     0.205
 5           3    0.854    0.670     0.667
 6           3.5  0.975    0.907     0.998
 7           4    1.10     1.13      1.25 
 8           4.5  1.22     1.33      1.44 
 9           5    1.34     1.51      1.59 
10           5.5  1.46     1.67      1.72 
# ℹ 21 more rows
…
